module gitlab.com/unboundsoftware/s3uploader

go 1.23.6

require (
	github.com/alecthomas/kong v1.9.0
	github.com/apex/log v1.9.0
	github.com/aws/aws-sdk-go-v2 v1.36.3
	github.com/aws/aws-sdk-go-v2/config v1.29.9
	github.com/aws/aws-sdk-go-v2/feature/s3/manager v1.17.65
	github.com/aws/aws-sdk-go-v2/service/s3 v1.78.1
	github.com/stretchr/testify v1.10.0
	gitlab.com/unboundsoftware/apex-mocks v0.2.0
)

require (
	github.com/aws/aws-sdk-go-v2/aws/protocol/eventstream v1.6.10 // indirect
	github.com/aws/aws-sdk-go-v2/credentials v1.17.62 // indirect
	github.com/aws/aws-sdk-go-v2/feature/ec2/imds v1.16.30 // indirect
	github.com/aws/aws-sdk-go-v2/internal/configsources v1.3.34 // indirect
	github.com/aws/aws-sdk-go-v2/internal/endpoints/v2 v2.6.34 // indirect
	github.com/aws/aws-sdk-go-v2/internal/ini v1.8.3 // indirect
	github.com/aws/aws-sdk-go-v2/internal/v4a v1.3.34 // indirect
	github.com/aws/aws-sdk-go-v2/service/internal/accept-encoding v1.12.3 // indirect
	github.com/aws/aws-sdk-go-v2/service/internal/checksum v1.6.2 // indirect
	github.com/aws/aws-sdk-go-v2/service/internal/presigned-url v1.12.15 // indirect
	github.com/aws/aws-sdk-go-v2/service/internal/s3shared v1.18.15 // indirect
	github.com/aws/aws-sdk-go-v2/service/sso v1.25.1 // indirect
	github.com/aws/aws-sdk-go-v2/service/ssooidc v1.29.1 // indirect
	github.com/aws/aws-sdk-go-v2/service/sts v1.33.17 // indirect
	github.com/aws/smithy-go v1.22.2 // indirect
	github.com/davecgh/go-spew v1.1.1 // indirect
	github.com/pkg/errors v0.9.1 // indirect
	github.com/pmezard/go-difflib v1.0.0 // indirect
	gopkg.in/yaml.v3 v3.0.1 // indirect
)
